Proyecto valor agregado ICFES UCC
…
    Especificar un modelo de regresión logística. Se establece el “paquete”, en este caso “glm” y opciones del paquete (la distribución de la variable de respuesta). Además, se establece el modo de modelado en “classification” para indicar que es una variable categórica. El resultado se almacena en el objeto lm_model.

    2. Estimar el modelo

lm_results <- lm_model |>
        fit(puntaje ~ ., data = taller_icfes)

    Aquí se ajusta-estima el modelo utilizando la función fit(). Se especifica la variable de respuesta (puntaje) y los predictores (.) y se utiliza el objeto taller_icfes como base de datos.

    3. Ver los resultados del modelo

lm_results |> tidy() 

# A tibble: 49 × 5
       term                                     estimate std.error statistic p.value
       <chr>                                       <dbl>     <dbl>     <dbl>   <dbl>
     1 (Intercept)                              -1.64       0.500    -3.28   1.03e-3
     2 fami_personashogar_9                     -0.243      0.0418   -5.82   5.73e-9
     3 fami_cuartoshogar_92                      0.100      0.161     0.622  5.34e-1
     4 fami_cuartoshogar_93                      0.230      0.162     1.42   1.56e-1
     5 fami_cuartoshogar_94                      0.209      0.178     1.18   2.38e-1
     6 fami_cuartoshogar_95                      0.287      0.224     1.28   1.99e-1
     7 fami_cuartoshogar_96                      0.0285     0.253     0.113  9.10e-1
     8 fami_educacionpadre_9No aplica            0.00678    0.158     0.0428 9.66e-1
     9 fami_educacionpadre_9Primaria            -0.149      0.0894   -1.67   9.57e-2
    10 fami_educacionpadre_9Técnico o Tecnólogo  0.555      0.0921    6.02   1.70e-9
    # ℹ 39 more rows
…
# A tibble: 1 × 8
      null.deviance df.null logLik   AIC   BIC deviance df.residual  nobs
              <dbl>   <int>  <dbl> <dbl> <dbl>    <dbl>       <int> <int>
    1         7781.    5888 -3420. 6938. 7265.    6840.        5840  5889

    tidy(): Esta función se utiliza para convertir los resultados de un modelo en un marco de datos “ordenado” que muestra los coeficientes del modelo, los errores estándar, los valores t y los valores p para cada variable independiente.

    glance(): Esta función se utiliza para resumir los resultados de un modelo como estadísticas globales del modelo, por ejemplo, R-cuadrado ajustado, el AIC y el BIC.

    Tip

lm_results |> tidy(exp=TRUE, conf.int=TRUE)

# A tibble: 49 × 7
       term                  estimate std.error statistic p.value conf.low conf.high
       <chr>                    <dbl>     <dbl>     <dbl>   <dbl>    <dbl>     <dbl>
     1 (Intercept)              0.194    0.500    -3.28   1.03e-3   0.0684     0.494
     2 fami_personashogar_9     0.784    0.0418   -5.82   5.73e-9   0.722      0.851
     3 fami_cuartoshogar_92     1.11     0.161     0.622  5.34e-1   0.809      1.52 
     4 fami_cuartoshogar_93     1.26     0.162     1.42   1.56e-1   0.919      1.74 
     5 fami_cuartoshogar_94     1.23     0.178     1.18   2.38e-1   0.873      1.75 
     6 fami_cuartoshogar_95     1.33     0.224     1.28   1.99e-1   0.860      2.07 
     7 fami_cuartoshogar_96     1.03     0.253     0.113  9.10e-1   0.626      1.69 
     8 fami_educacionpadre_…    1.01     0.158     0.0428 9.66e-1   0.736      1.37 
     9 fami_educacionpadre_…    0.862    0.0894   -1.67   9.57e-2   0.722      1.03 
    10 fami_educacionpadre_…    1.74     0.0921    6.02   1.70e-9   1.45       2.09 
    # ℹ 39 more rows
…
    2. Estimar el modelo

    Estimación del modelo: Se utiliza la función lm_model() y fit() para ajustar un modelo de regresión lineal. La fórmula puntaje ~ . indica que se está modelando la variable puntaje como una función de todas las otras variables en el dataframe “datos_entrenamiento”.

lm_results <- lm_model |>
        fit(puntaje ~ ., data = datos_entrenamiento)

    3. Visualizar los resultados del modelo

    Visualizar los resultados del modelo: Se utiliza la función tidy para obtener un resumen limpio y ordenado de los resultados del modelo. En el segundo uso de tidy, se exponencian los coeficientes y los intervalos de confianza.

lm_results |> tidy()

# A tibble: 49 × 5
       term                                     estimate std.error statistic p.value
       <chr>                                       <dbl>     <dbl>     <dbl>   <dbl>
     1 (Intercept)                               -1.68      0.524    -3.21   1.31e-3
     2 fami_personashogar_9                      -0.261     0.0474   -5.50   3.76e-8
     3 fami_cuartoshogar_92                       0.197     0.186     1.06   2.90e-1
     4 fami_cuartoshogar_93                       0.358     0.187     1.91   5.62e-2
     5 fami_cuartoshogar_94                       0.332     0.205     1.62   1.05e-1
     6 fami_cuartoshogar_95                       0.485     0.255     1.90   5.74e-2
     7 fami_cuartoshogar_96                       0.117     0.286     0.411  6.81e-1
     8 fami_educacionpadre_9No aplica             0.0173    0.177     0.0979 9.22e-1
     9 fami_educacionpadre_9Primaria             -0.0868    0.0992   -0.875  3.81e-1
    10 fami_educacionpadre_9Técnico o Tecnólogo   0.574     0.103     5.57   2.54e-8
    # ℹ 39 more rows
…
